2020-06-08 21:16:53,249 INFO  [org.jboss.modules] (main) JBoss Modules version 1.5.2.Final
2020-06-08 21:17:01,566 INFO  [org.jboss.msc] (main) JBoss MSC version 1.2.6.Final
2020-06-08 21:17:02,572 INFO  [org.jboss.as] (MSC service thread 1-6) WFLYSRV0049: WildFly Full 10.1.0.Final (WildFly Core 2.2.0.Final) starting
2020-06-08 21:17:02,574 DEBUG [org.jboss.as.config] (MSC service thread 1-6) Configured system properties:
	[Standalone] = 
	file.encoding = UTF-8
	file.separator = /
	ftp.nonProxyHosts = local|*.local|169.254/16|*.169.254/16
	ftp.proxyHost = 192.168.2.11
	ftp.proxyPort = 4004
	http.nonProxyHosts = local|*.local|169.254/16|*.169.254/16
	java.awt.headless = true
	java.class.path = ./server/wildfly-10.1.0.Final/jboss-modules.jar
	java.class.version = 58.0
	java.home = /Library/Java/JavaVirtualMachines/jdk-14.0.1.jdk/Contents/Home
	java.io.tmpdir = /var/folders/4z/1rf3_yd51n95g0dxz3ld309h0000gn/T/
	java.library.path = /Users/sal/Library/Java/Extensions:/Library/Java/Extensions:/Network/Library/Java/Extensions:/System/Library/Java/Extensions:/usr/lib/java:.
	java.net.preferIPv4Stack = true
	java.runtime.name = Java(TM) SE Runtime Environment
	java.runtime.version = 14.0.1+7
	java.specification.name = Java Platform API Specification
	java.specification.vendor = Oracle Corporation
	java.specification.version = 14
	java.util.logging.manager = org.jboss.logmanager.LogManager
	java.vendor = Oracle Corporation
	java.vendor.url = https://java.oracle.com/
	java.vendor.url.bug = https://bugreport.java.com/bugreport/
	java.version = 14.0.1
	java.version.date = 2020-04-14
	java.vm.compressedOopsMode = Zero based
	java.vm.info = mixed mode, sharing
	java.vm.name = Java HotSpot(TM) 64-Bit Server VM
	java.vm.specification.name = Java Virtual Machine Specification
	java.vm.specification.vendor = Oracle Corporation
	java.vm.specification.version = 14
	java.vm.vendor = Oracle Corporation
	java.vm.version = 14.0.1+7
	javax.management.builder.initial = org.jboss.as.jmx.PluggableMBeanServerBuilder
	javax.xml.datatype.DatatypeFactory = __redirected.__DatatypeFactory
	javax.xml.parsers.DocumentBuilderFactory = __redirected.__DocumentBuilderFactory
	javax.xml.parsers.SAXParserFactory = __redirected.__SAXParserFactory
	javax.xml.stream.XMLEventFactory = __redirected.__XMLEventFactory
	javax.xml.stream.XMLInputFactory = __redirected.__XMLInputFactory
	javax.xml.stream.XMLOutputFactory = __redirected.__XMLOutputFactory
	javax.xml.transform.TransformerFactory = __redirected.__TransformerFactory
	javax.xml.validation.SchemaFactory:http://www.w3.org/2001/XMLSchema = __redirected.__SchemaFactory
	javax.xml.xpath.XPathFactory:http://java.sun.com/jaxp/xpath/dom = __redirected.__XPathFactory
	jboss.home.dir = /Volumes/sal/Downloads/camunda/./server/wildfly-10.1.0.Final
	jboss.host.name = sals-macbook-pro
	jboss.modules.dir = /Volumes/sal/Downloads/camunda/./server/wildfly-10.1.0.Final/modules
	jboss.modules.system.pkgs = org.jboss.byteman
	jboss.node.name = sals-macbook-pro
	jboss.qualified.host.name = sals-macbook-pro.local
	jboss.server.base.dir = /Volumes/sal/Downloads/camunda/./server/wildfly-10.1.0.Final/standalone
	jboss.server.config.dir = /Volumes/sal/Downloads/camunda/./server/wildfly-10.1.0.Final/standalone/configuration
	jboss.server.data.dir = /Volumes/sal/Downloads/camunda/./server/wildfly-10.1.0.Final/standalone/data
	jboss.server.deploy.dir = /Volumes/sal/Downloads/camunda/./server/wildfly-10.1.0.Final/standalone/data/content
	jboss.server.log.dir = /Volumes/sal/Downloads/camunda/./server/wildfly-10.1.0.Final/standalone/log
	jboss.server.name = sals-macbook-pro
	jboss.server.persist.config = true
	jboss.server.temp.dir = /Volumes/sal/Downloads/camunda/./server/wildfly-10.1.0.Final/standalone/tmp
	jdk.debug = release
	line.separator = 

	logging.configuration = file:./server/wildfly-10.1.0.Final/standalone/configuration/logging.properties
	module.path = ./server/wildfly-10.1.0.Final/modules
	org.jboss.boot.log.file = ./server/wildfly-10.1.0.Final/standalone/log/server.log
	org.jboss.resolver.warning = true
	org.xml.sax.driver = __redirected.__XMLReaderFactory
	os.arch = x86_64
	os.name = Mac OS X
	os.version = 10.15.5
	path.separator = :
	socksNonProxyHosts = local|*.local|169.254/16|*.169.254/16
	sun.arch.data.model = 64
	sun.boot.library.path = /Library/Java/JavaVirtualMachines/jdk-14.0.1.jdk/Contents/Home/lib
	sun.cpu.endian = little
	sun.io.unicode.encoding = UnicodeBig
	sun.java.command = ./server/wildfly-10.1.0.Final/jboss-modules.jar -mp ./server/wildfly-10.1.0.Final/modules org.jboss.as.standalone -Djboss.home.dir=./server/wildfly-10.1.0.Final -Djboss.server.base.dir=./server/wildfly-10.1.0.Final/standalone
	sun.java.launcher = SUN_STANDARD
	sun.jnu.encoding = UTF-8
	sun.management.compiler = HotSpot 64-Bit Tiered Compilers
	user.country = GB
	user.dir = /Volumes/sal/Downloads/camunda
	user.home = /Users/sal
	user.language = en
	user.name = sal
	user.timezone = Europe/London
2020-06-08 21:17:02,578 DEBUG [org.jboss.as.config] (MSC service thread 1-6) VM Arguments: -D[Standalone] -Xms512m -Xmx768m -XX:MetaspaceSize=128M -XX:MaxMetaspaceSize=256m -Djava.net.preferIPv4Stack=true -Djboss.modules.system.pkgs=org.jboss.byteman -Djava.awt.headless=true -Dorg.jboss.boot.log.file=./server/wildfly-10.1.0.Final/standalone/log/server.log -Dlogging.configuration=file:./server/wildfly-10.1.0.Final/standalone/configuration/logging.properties 
2020-06-08 21:17:17,457 ERROR [org.jboss.as.server] (Controller Boot Thread) WFLYSRV0055: Caught exception during boot: org.jboss.as.controller.persistence.ConfigurationPersistenceException: WFLYCTL0085: Failed to parse configuration
	at org.jboss.as.controller.persistence.XmlConfigurationPersister.load(XmlConfigurationPersister.java:131)
	at org.jboss.as.server.ServerService.boot(ServerService.java:357)
	at org.jboss.as.controller.AbstractControllerService$1.run(AbstractControllerService.java:299)
	at java.base/java.lang.Thread.run(Thread.java:832)
Caused by: javax.xml.stream.XMLStreamException: WFLYCTL0083: Failed to load module org.camunda.bpm.wildfly.camunda-wildfly-subsystem
	at org.jboss.as.controller.parsing.ExtensionXml.parseExtensions(ExtensionXml.java:155)
	at org.jboss.as.server.parsing.StandaloneXml$DefaultExtensionHandler.parseExtensions(StandaloneXml.java:126)
	at org.jboss.as.server.parsing.StandaloneXml_4.readServerElement(StandaloneXml_4.java:218)
	at org.jboss.as.server.parsing.StandaloneXml_4.readElement(StandaloneXml_4.java:141)
	at org.jboss.as.server.parsing.StandaloneXml.readElement(StandaloneXml.java:103)
	at org.jboss.as.server.parsing.StandaloneXml.readElement(StandaloneXml.java:49)
	at org.jboss.staxmapper.XMLMapperImpl.processNested(XMLMapperImpl.java:110)
	at org.jboss.staxmapper.XMLMapperImpl.parseDocument(XMLMapperImpl.java:69)
	at org.jboss.as.controller.persistence.XmlConfigurationPersister.load(XmlConfigurationPersister.java:123)
	... 3 more
Caused by: java.util.concurrent.ExecutionException: javax.xml.stream.XMLStreamException: WFLYCTL0083: Failed to load module
	at java.base/java.util.concurrent.FutureTask.report(FutureTask.java:122)
	at java.base/java.util.concurrent.FutureTask.get(FutureTask.java:191)
	at org.jboss.as.controller.parsing.ExtensionXml.parseExtensions(ExtensionXml.java:147)
	... 11 more
Caused by: javax.xml.stream.XMLStreamException: WFLYCTL0083: Failed to load module
	at org.jboss.as.controller.parsing.ExtensionXml.loadModule(ExtensionXml.java:196)
	at org.jboss.as.controller.parsing.ExtensionXml.access$000(ExtensionXml.java:69)
	at org.jboss.as.controller.parsing.ExtensionXml$1.call(ExtensionXml.java:127)
	at org.jboss.as.controller.parsing.ExtensionXml$1.call(ExtensionXml.java:124)
	at java.base/java.util.concurrent.FutureTask.run(FutureTask.java:264)
	at java.base/java.util.concurrent.ThreadPoolExecutor.runWorker(ThreadPoolExecutor.java:1130)
	at java.base/java.util.concurrent.ThreadPoolExecutor$Worker.run(ThreadPoolExecutor.java:630)
	at java.base/java.lang.Thread.run(Thread.java:832)
	at org.jboss.threads.JBossThread.run(JBossThread.java:320)
Caused by: org.jboss.modules.ModuleNotFoundException: org.camunda.bpm.wildfly.camunda-wildfly-subsystem:main
	at org.jboss.modules.ModuleLoader.loadModule(ModuleLoader.java:223)
	at org.jboss.as.controller.parsing.ExtensionXml.loadModule(ExtensionXml.java:178)
	... 8 more

2020-06-08 21:17:17,460 FATAL [org.jboss.as.server] (Controller Boot Thread) WFLYSRV0056: Server boot has failed in an unrecoverable manner; exiting. See previous messages for details.
2020-06-08 21:17:17,499 INFO  [org.jboss.as] (MSC service thread 1-8) WFLYSRV0050: WildFly Full 10.1.0.Final (WildFly Core 2.2.0.Final) stopped in 31ms
